<?xml version="1.0" standalone="no"?>
<!DOCTYPE svg PUBLIC "-//W3C//DTD SVG 20010904//EN"
 "http://www.w3.org/TR/2001/REC-SVG-20010904/DTD/svg10.dtd">
<svg version="1.0" xmlns="http://www.w3.org/2000/svg"
 width="700.000000pt" height="700.000000pt" viewBox="0 0 700.000000 700.000000"
 preserveAspectRatio="xMidYMid meet">
<metadata>
Created by potrace 1.11, written by Peter Selinger 2001-2013
</metadata>
<g transform="translate(0.000000,700.000000) scale(0.100000,-0.100000)"
fill="#000000" stroke="none">
<path d="M1132 5005 c0 -987 0 -1004 19 -992 10 6 19 15 19 18 0 4 19 19 43
35 169 114 314 158 522 158 69 0 108 -4 210 -20 11 -1 36 -8 55 -14 19 -6 44
-13 56 -15 11 -3 54 -18 94 -35 346 -142 598 -424 667 -744 15 -69 19 -205 8
-256 -3 -14 -7 -37 -10 -53 -10 -52 -46 -135 -85 -196 -111 -172 -305 -289
-530 -319 -106 -14 -290 -5 -368 17 -18 5 -36 10 -40 10 -60 6 -246 84 -342
145 -121 77 -230 178 -317 294 -46 62 -133 228 -134 258 0 18 -1 18 -8 0 -8
-21 -6 -298 3 -351 19 -122 27 -164 35 -193 5 -18 10 -35 10 -37 3 -33 55
-200 79 -255 40 -94 116 -245 123 -248 5 -2 9 -7 9 -12 0 -9 60 -110 70 -120
4 -3 22 -27 41 -55 18 -27 39 -55 44 -61 6 -7 26 -32 45 -56 148 -183 420
-409 650 -541 52 -30 267 -137 275 -137 3 0 24 -9 48 -20 109 -50 446 -147
576 -165 14 -2 42 -6 61 -9 34 -6 56 -8 175 -23 120 -14 544 -7 645 11 14 3
42 7 63 10 108 17 107 16 237 46 90 20 263 72 305 90 11 5 45 19 75 30 72 27
280 125 345 164 48 28 249 158 255 166 3 3 25 21 50 40 86 66 259 231 335 320
104 121 208 279 281 425 47 93 110 250 103 257 -1 2 3 13 10 26 20 38 56 187
67 277 3 22 9 65 13 95 7 44 6 355 -1 407 -2 18 -18 4 -18 -16 0 -29 -65 -185
-103 -248 -150 -246 -409 -435 -705 -513 -101 -27 -157 -34 -272 -34 -178 0
-264 20 -415 94 -162 81 -305 258 -339 422 -3 13 -8 34 -11 48 -3 14 -6 63 -6
110 0 106 7 151 37 244 24 73 90 206 119 240 14 16 25 33 25 38 0 5 44 53 98
107 134 135 274 226 442 286 148 53 239 69 395 67 120 -1 157 -6 246 -32 160
-47 279 -125 386 -253 13 -15 26 -27 30 -27 6 0 10 2023 4 2088 -1 15 -71 9
-216 -18 -27 -5 -61 -11 -75 -14 -79 -13 -293 -83 -388 -127 -34 -15 -66 -29
-70 -30 -4 -1 -24 -13 -44 -25 -21 -13 -42 -24 -48 -24 -5 0 -10 -3 -10 -8 0
-4 -13 -13 -28 -20 -16 -6 -38 -21 -50 -32 -12 -11 -26 -20 -32 -20 -5 0 -10
-4 -10 -8 0 -5 -9 -13 -19 -18 -36 -17 -180 -155 -238 -228 -96 -121 -105
-135 -158 -238 l-25 -47 -72 25 c-60 21 -156 49 -238 70 -8 2 -33 8 -55 14
-22 6 -47 11 -55 12 -8 0 -42 6 -75 13 -33 7 -89 16 -125 21 -36 4 -74 9 -85
10 -33 5 -245 15 -320 15 -112 1 -309 -12 -385 -26 -8 -1 -40 -6 -70 -10 -30
-4 -64 -9 -75 -12 -11 -2 -29 -6 -40 -8 -11 -3 -29 -7 -40 -9 -57 -11 -150
-36 -264 -71 -46 -14 -85 -24 -86 -23 -1 2 -13 23 -25 48 -30 59 -118 190
-143 213 -11 9 -17 17 -14 17 15 0 -165 168 -234 220 -124 92 -218 143 -414
225 -95 40 -291 88 -447 110 -57 8 -108 15 -114 15 -9 0 -12 -255 -12 -1005z
m2563 -1849 c9 -6 18 -20 20 -31 2 -11 4 -20 5 -20 1 0 3 -10 6 -22 18 -95 84
-245 147 -330 37 -50 154 -163 169 -163 17 0 5 -27 -63 -138 -40 -65 -81 -133
-92 -152 -10 -19 -27 -46 -36 -60 -9 -14 -21 -34 -28 -45 -94 -158 -189 -311
-195 -313 -5 -2 -8 -12 -8 -23 0 -10 -4 -19 -8 -19 -5 0 -14 -12 -21 -27 -8
-18 -15 -23 -20 -15 -6 10 -8 344 -2 413 1 20 25 47 74 84 160 120 47 397
-161 396 -60 0 -81 -5 -130 -30 -104 -53 -152 -180 -107 -282 22 -49 35 -63
85 -99 60 -42 59 -37 60 -272 0 -120 -3 -218 -7 -218 -7 0 -141 217 -198 319
-11 20 -37 62 -58 94 -20 31 -37 62 -37 67 0 6 -4 10 -10 10 -5 0 -10 5 -10
11 0 6 -36 69 -80 140 -44 71 -80 133 -80 137 0 4 14 18 32 32 72 57 140 138
187 223 32 59 94 217 85 217 -3 0 0 8 5 19 6 10 13 33 16 51 3 19 13 39 23 46
23 17 414 17 437 0z m-155 -616 c41 -38 40 -90 -3 -126 -39 -33 -81 -31 -118
5 -31 31 -36 59 -18 94 31 60 91 72 139 27z"/>
<path d="M1955 4101 c-155 -46 -247 -124 -270 -229 -5 -27 -8 -121 -4 -212 1
-43 -11 -96 -29 -119 -26 -36 -59 -50 -133 -57 -35 -3 -67 -7 -70 -10 -4 -2
-7 -48 -6 -101 l2 -96 60 -3 c111 -4 156 -37 172 -124 3 -20 4 -68 2 -155 -2
-84 5 -125 31 -174 36 -72 114 -124 244 -165 92 -29 128 -21 151 36 31 79 19
104 -74 151 -100 50 -106 61 -106 230 -1 115 -5 149 -19 180 -21 44 -65 83
-120 108 l-39 17 35 15 c20 8 54 32 77 52 55 50 69 100 66 236 -4 159 12 190
122 243 62 30 77 53 68 107 -14 80 -60 100 -160 70z"/>
<path d="M4824 4102 c-19 -15 -28 -37 -39 -92 -6 -35 16 -61 77 -89 106 -48
122 -78 120 -220 -1 -57 -4 -106 -6 -108 -7 -8 24 -94 45 -124 11 -16 46 -44
77 -62 l56 -31 -35 -16 c-45 -19 -79 -47 -106 -85 -32 -46 -36 -83 -31 -252 1
-35 -1 -66 -5 -70 -4 -3 -7 -14 -7 -23 0 -24 -60 -75 -118 -100 -68 -30 -82
-66 -51 -143 12 -27 54 -57 74 -51 207 57 277 100 325 199 23 46 25 63 26 198
1 131 3 151 20 175 30 40 86 64 155 66 32 0 59 3 60 6 4 20 3 184 -1 190 -3 4
-35 10 -72 13 -139 12 -161 43 -163 237 -2 173 -12 208 -80 276 -30 30 -61 54
-69 54 -9 0 -16 5 -16 10 0 6 -8 10 -18 10 -10 0 -22 4 -27 9 -11 9 -131 41
-156 41 -8 0 -24 -8 -35 -18z"/>
<path d="M63 2447 c-30 -17 -42 -40 -43 -78 0 -60 26 -82 101 -86 123 -5 160
-6 165 0 3 2 20 1 39 -3 19 -4 36 -5 39 -2 5 5 124 6 136 2 3 -1 9 -2 13 -1 8
1 211 2 237 0 8 0 44 1 80 2 36 1 70 0 75 -1 6 -1 33 -2 62 -1 72 1 107 32
106 91 -1 29 -8 49 -22 64 -21 21 -26 21 -495 22 -306 1 -481 -3 -493 -9z"/>
<path d="M5982 2449 c-24 -9 -42 -38 -47 -79 -2 -22 4 -37 24 -59 24 -26 35
-30 82 -30 30 0 59 0 64 -1 6 -2 15 -1 20 0 13 2 128 2 135 0 3 -1 9 -2 13 -1
8 1 211 2 237 0 8 0 44 0 80 0 36 1 74 1 85 1 11 0 39 0 63 0 23 0 47 -2 52
-5 6 -4 10 -1 10 5 0 6 5 8 11 4 12 -7 80 -7 118 0 29 6 51 24 51 42 0 8 4 14
9 14 10 0 9 11 -4 63 -14 54 -20 54 -521 54 -253 0 -470 -4 -482 -8z"/>
<path d="M761 1914 c-223 -85 -420 -162 -439 -171 -55 -26 -69 -82 -33 -132
40 -56 26 -60 601 164 74 29 180 69 235 90 114 44 145 69 145 118 0 42 -41 87
-79 87 -14 -1 -208 -70 -430 -156z"/>
<path d="M5910 2043 c-35 -39 -38 -84 -8 -114 13 -13 69 -41 123 -62 55 -21
109 -42 120 -47 11 -5 79 -31 150 -58 72 -27 139 -53 150 -57 11 -4 25 -9 30
-11 6 -2 75 -28 155 -59 80 -31 155 -58 167 -60 28 -3 82 42 88 74 5 28 -18
77 -43 90 -10 5 -67 28 -127 51 -61 22 -119 45 -130 49 -11 5 -67 27 -125 49
-58 22 -148 57 -200 77 -52 20 -126 48 -165 62 -38 14 -74 28 -80 32 -5 4 -26
8 -45 10 -28 2 -41 -4 -60 -26z"/>
</g>
</svg>
